0327
…
rh_mean  = rh %>%
            select(-time) %>%
            group_by(date, daynight) %>%
            summarize(mean_rh = mean(rh))

rh_mean %>%
    filter(daynight == "night")

## # A tibble: 977 x 3
## # Groups:   date [977]
##    date       daynight mean_rh
##    <chr>      <chr>      <dbl>
##  1 2009-05-25 night       41  
##  2 2009-05-26 night       70.4
##  3 2009-05-27 night      100  
##  4 2009-05-28 night       98.2
##  5 2009-05-29 night      100  
##  6 2009-05-30 night       90.1
##  7 2009-05-31 night       89.9
##  8 2009-06-01 night       69.3
##  9 2009-06-02 night       56.2
## 10 2009-06-03 night       61.5
## #  with 967 more rows
…
